index.utf8
…
library(tidyverse)
#happiness
happiness <- read_csv(url("https://ndownloader.figshare.com/files/17715713"))
happiness

## # A tibble: 369 x 3
##    country                            hpi  year
##    <chr>                            <dbl> <dbl>
##  1 Vanuatu                           68.2  2006
##  2 Colombia                          67.2  2006
##  3 Costa Rica                        66    2006
##  4 Dominica                          64.6  2006
##  5 Panama                            63.5  2006
##  6 Cuba                              61.9  2006
##  7 Honduras                          61.8  2006
##  8 Guatemala                         61.7  2006
##  9 El Salvador                       61.7  2006
## 10 Saint Vincent and the Grenadines  61.4  2006
## #  with 359 more rows

#GDP
GDP <- read_csv(url("https://ndownloader.figshare.com/files/17715722"))
GDP

## # A tibble: 264 x 59
##    `Country Name` `Country Code`  `1960`  `1961`   `1962`   `1963`   `1964`
##    <chr>          <chr>            <dbl>   <dbl>    <dbl>    <dbl>    <dbl>
##  1 Aruba          ABW            NA      NA      NA       NA       NA      
##  2 Andorra        AND            NA      NA      NA       NA       NA      
##  3 Afghanistan    AFG             5.38e8  5.49e8  5.47e 8  7.51e 8  8.00e 8
##  4 Angola         AGO            NA      NA      NA       NA       NA      
##  5 Albania        ALB            NA      NA      NA       NA       NA      
##  6 Arab World     ARB            NA      NA      NA       NA       NA      
##  7 United Arab E ARE            NA      NA      NA       NA       NA      
##  8 Argentina      ARG            NA      NA       2.45e10  1.83e10  2.56e10
##  9 Armenia        ARM            NA      NA      NA       NA       NA      
## 10 American Samoa ASM            NA      NA      NA       NA       NA      
## #  with 254 more rows, and 52 more variables: `1965` <dbl>, `1966` <dbl>,
## #   `1967` <dbl>, `1968` <dbl>, `1969` <dbl>, `1970` <dbl>, `1971` <dbl>,
## #   `1972` <dbl>, `1973` <dbl>, `1974` <dbl>, `1975` <dbl>, `1976` <dbl>,
## #   `1977` <dbl>, `1978` <dbl>, `1979` <dbl>, `1980` <dbl>, `1981` <dbl>,
## #   `1982` <dbl>, `1983` <dbl>, `1984` <dbl>, `1985` <dbl>, `1986` <dbl>,
## #   `1987` <dbl>, `1988` <dbl>, `1989` <dbl>, `1990` <dbl>, `1991` <dbl>,
## #   `1992` <dbl>, `1993` <dbl>, `1994` <dbl>, `1995` <dbl>, `1996` <dbl>,
## #   `1997` <dbl>, `1998` <dbl>, `1999` <dbl>, `2000` <dbl>, `2001` <dbl>,
## #   `2002` <dbl>, `2003` <dbl>, `2004` <dbl>, `2005` <dbl>, `2006` <dbl>,
## #   `2007` <dbl>, `2008` <dbl>, `2009` <dbl>, `2010` <dbl>, `2011` <dbl>,
## #   `2012` <dbl>, `2013` <dbl>, `2014` <dbl>, `2015` <dbl>, `2016` <lgl>

#density
pop <- read_csv(url("https://ndownloader.figshare.com/files/17715701"))
pop

## # A tibble: 264 x 57
##    `Country Name` `Country Code` `1961` `1962` `1963` `1964` `1965` `1966`
##    <chr>          <chr>           <dbl>  <dbl>  <dbl>  <dbl>  <dbl>  <dbl>
##  1 Aruba          ABW            308.   312.   315.   317.   319.   321.  
##  2 Andorra        AND             30.6   32.7   34.9   37.2   39.5   41.8 
##  3 Afghanistan    AFG             14.0   14.3   14.6   14.9   15.2   15.5 
##  4 Angola         AGO              4.31   4.38   4.46   4.54   4.62   4.70
##  5 Albania        ALB             60.6   62.5   64.3   66.2   68.1   69.9 
##  6 Arab World     ARB              6.98   7.17   7.37   7.58   7.79   8.02
##  7 United Arab E ARE              1.21   1.34   1.50   1.65   1.80   1.93
##  8 Argentina      ARG              7.66   7.78   7.90   8.02   8.14   8.26
##  9 Armenia        ARM             67.9   70.3   72.7   75.1   77.4   79.7 
## 10 American Samoa ASM            102.   106.   109.   114.   118.   122.  
## #  with 254 more rows, and 49 more variables: `1967` <dbl>, `1968` <dbl>,
## #   `1969` <dbl>, `1970` <dbl>, `1971` <dbl>, `1972` <dbl>, `1973` <dbl>,
## #   `1974` <dbl>, `1975` <dbl>, `1976` <dbl>, `1977` <dbl>, `1978` <dbl>,
## #   `1979` <dbl>, `1980` <dbl>, `1981` <dbl>, `1982` <dbl>, `1983` <dbl>,
## #   `1984` <dbl>, `1985` <dbl>, `1986` <dbl>, `1987` <dbl>, `1988` <dbl>,
## #   `1989` <dbl>, `1990` <dbl>, `1991` <dbl>, `1992` <dbl>, `1993` <dbl>,
## #   `1994` <dbl>, `1995` <dbl>, `1996` <dbl>, `1997` <dbl>, `1998` <dbl>,
## #   `1999` <dbl>, `2000` <dbl>, `2001` <dbl>, `2002` <dbl>, `2003` <dbl>,
## #   `2004` <dbl>, `2005` <dbl>, `2006` <dbl>, `2007` <dbl>, `2008` <dbl>,
…
